^C:\USERS\MATTHEW\DEVELOPMENT\TELEMETRYPROCESSINGSYSTEM\DEBUG\TELEMETRYPROCESSINGLIBRARY.LIB|C:\USERS\MATTHEW\DEVELOPMENT\TELEMETRYPROCESSINGSYSTEM\TELEMETRYPROCESSINGTESTS\DEBUG\STDAFX.OBJ|C:\USERS\MATTHEW\DEVELOPMENT\TELEMETRYPROCESSINGSYSTEM\TELEMETRYPROCESSINGTESTS\DEBUG\UNITTEST1.OBJ
C:\USERS\MATTHEW\DEVELOPMENT\TELEMETRYPROCESSINGSYSTEM\DEBUG\TELEMETRYPROCESSINGTESTS.DLL
C:\USERS\MATTHEW\DEVELOPMENT\TELEMETRYPROCESSINGSYSTEM\DEBUG\TELEMETRYPROCESSINGTESTS.ILK
C:\USERS\MATTHEW\DEVELOPMENT\TELEMETRYPROCESSINGSYSTEM\DEBUG\TELEMETRYPROCESSINGTESTS.PDB
