^C:\USERS\MATTHEW\DEVELOPMENT\TELEMETRYPROCESSINGSYSTEM\TELEMETRYPROCESSINGAPPLICATION\STDAFX.CPP
C:\USERS\MATTHEW\DEVELOPMENT\TELEMETRYPROCESSINGSYSTEM\TELEMETRYPROCESSINGAPPLICATION\DEBUG\TELEMETRYPROCESSINGAPPLICATION.PCH
C:\USERS\MATTHEW\DEVELOPMENT\TELEMETRYPROCESSINGSYSTEM\TELEMETRYPROCESSINGAPPLICATION\DEBUG\VC141.PDB
C:\USERS\MATTHEW\DEVELOPMENT\TELEMETRYPROCESSINGSYSTEM\TELEMETRYPROCESSINGAPPLICATION\DEBUG\VC141.IDB
C:\USERS\MATTHEW\DEVELOPMENT\TELEMETRYPROCESSINGSYSTEM\TELEMETRYPROCESSINGAPPLICATION\DEBUG\STDAFX.OBJ
^C:\USERS\MATTHEW\DEVELOPMENT\TELEMETRYPROCESSINGSYSTEM\TELEMETRYPROCESSINGAPPLICATION\TELEMETRYPROCESSINGAPPLICATION.CPP
C:\USERS\MATTHEW\DEVELOPMENT\TELEMETRYPROCESSINGSYSTEM\TELEMETRYPROCESSINGAPPLICATION\DEBUG\VC141.PDB
C:\USERS\MATTHEW\DEVELOPMENT\TELEMETRYPROCESSINGSYSTEM\TELEMETRYPROCESSINGAPPLICATION\DEBUG\VC141.IDB
C:\USERS\MATTHEW\DEVELOPMENT\TELEMETRYPROCESSINGSYSTEM\TELEMETRYPROCESSINGAPPLICATION\DEBUG\TELEMETRYPROCESSINGAPPLICATION.OBJ
